{
  "description": "Pipeline for parsing queries logs. Remove not necessary fields and add event type",
  "processors": [
    {
      "set": {
        "tag": "set_event_type",
        "field": "event_type",
        "value": "search"
      }
    },
    {
      "remove": {
        "tag": "remove_version",
        "field": "@version",
        "ignore_failure": true
      }
    },
    {
      "remove": {
        "tag": "remove_beat",
        "field": "beat",
        "ignore_failure": true
      }
    },
    {
      "remove": {
        "tag": "remove_count",
        "field": "count",
        "ignore_failure": true
      }
    },
    {
      "remove": {
        "tag": "remove_fields",
        "field": "fields",
        "ignore_failure": true
      }
    },
    {
      "remove": {
        "tag": "remove_host",
        "field": "host",
        "ignore_failure": true
      }
    },
    {
      "remove": {
        "tag": "remove_host_name",
        "field": "HOSTNAME",
        "ignore_failure": true
      }
    },
    {
      "remove": {
        "tag": "remove_http_headers",
        "field": "httpHeaders",
        "ignore_failure": true
      }
    },
    {
      "remove": {
        "tag": "remove_input_type",
        "field": "input_type",
        "ignore_failure": true
      }
    },
    {
      "remove": {
        "tag": "remove_level",
        "field": "level",
        "ignore_failure": true
      }
    },
    {
      "remove": {
        "tag": "remove_level_value",
        "field": "level_value",
        "ignore_failure": true
      }
    },
    {
      "remove": {
        "tag": "remove_logger_name",
        "field": "logger_name",
        "ignore_failure": true
      }
    },
    {
      "remove": {
        "tag": "remove_message",
        "field": "message",
        "ignore_failure": true
      }
    },
    {
      "remove": {
        "tag": "remove_offset",
        "field": "offset",
        "ignore_failure": true
      }
    },
    {
      "remove": {
        "tag": "remove_profile_type",
        "field": "profileType",
        "ignore_failure": true
      }
    },
    {
      "remove": {
        "tag": "remove_source",
        "field": "source",
        "ignore_failure": true
      }
    },
    {
      "remove": {
        "tag": "remove_stats",
        "field": "stats",
        "ignore_failure": true
      }
    },
    {
      "remove": {
        "tag": "remove_tags",
        "field": "tags",
        "ignore_failure": true
      }
    },
    {
      "remove": {
        "tag": "remove_thread_name",
        "field": "thread_name",
        "ignore_failure": true
      }
    },
    {
      "remove": {
        "tag": "remove_time_of_click",
        "field": "timeOfClick",
        "ignore_failure": true
      }
    },
    {
      "remove": {
        "tag": "remove_time_to_click_in_millis",
        "field": "timeToClickInMillis",
        "ignore_failure": true
      }
    },
    {
      "remove": {
        "tag": "remove_time_of_search_day_of_month",
        "field": "timeOfSearch.dayOfMonth",
        "ignore_failure": true
      }
    },
    {
      "remove": {
        "tag": "remove_time_of_search_month_of_year",
        "field": "timeOfSearch.monthOfYear",
        "ignore_failure": true
      }
    },
    {
      "remove": {
        "tag": "remove_time_of_search_week_of_year",
        "field": "timeOfSearch.weekOfYear",
        "ignore_failure": true
      }
    },
    {
      "remove": {
        "tag": "remove_time_of_search_hour_of_day",
        "field": "timeOfSearch.hourOfDay",
        "ignore_failure": true
      }
    },
    {
      "remove": {
        "tag": "remove_time_of_search_day_of_week",
        "field": "timeOfSearch.dayOfWeek",
        "ignore_failure": true
      }
    },
    {
      "date_index_name": {
        "tag": "set_index",
        "index_name_prefix": "completion-",
        "index_name_format": "yyyy.MM",
        "field": "timeOfSearch.time",
        "date_rounding": "M",
        "on_failure": [
          {
            "append": {
              "field": "error",
              "value": "[{{ _ingest.on_failure_processor_tag }}] Failed to set index: {{ _ingest.on_failure_message }}"
            }
          }
        ]
      }
    }
  ]
}