{
  "@class" : "com.findwise.commons.config.blueprint.ConfigurableBlueprint",
  "systemId" : "08ee0fc6-4e67-45f6-a93c-1cee51b6ce29",
  "version" : 1617886057070,
  "active" : true,
  "instanceClass" : "com.findwise.indexsvc.analysis.elastic.ElasticSearchHttpIndexAnalyzer",
  "standardName" : "Elasticsearch HTTP",
  "customName" : null,
  "standardDescription" : "Allows seeing what an indexed document looks like in the Elasticsearch search engine. Communicates with Elasticsearch using HTTP/HTTPS.",
  "customDescription" : null,
  "context" : "CommonContext",
  "parameters" : [ {
    "@class" : "com.findwise.commons.config.blueprint.IdParameterBlueprint",
    "type" : "java.lang.String",
    "name" : "ID",
    "description" : "",
    "required" : true,
    "advanced" : false,
    "adapter" : "com.findwise.commons.config.annotation.Parameter$DEFAULT",
    "value" : "default-elastic"
  }, {
    "@class" : "com.findwise.commons.config.blueprint.NestedParameterBlueprint",
    "type" : "com.findwise.commons.config.elastic.MultiIndexElasticClientConfiguration",
    "name" : "Elasticsearch client configuration",
    "description" : "Specifies how to communicate with Elasticsearch, incl. Elasticsearch node details, authentication and security settings.",
    "required" : true,
    "advanced" : false,
    "value" : {
      "@class" : "com.findwise.commons.config.blueprint.ConfigurableBlueprint",
      "systemId" : "92822028-7a8f-452f-8190-871f6ddb4fc5",
      "version" : 1617886057065,
      "active" : true,
      "instanceClass" : "com.findwise.commons.config.elastic.MultiIndexElasticClientConfiguration",
      "standardName" : "Multi index client configuration",
      "customName" : null,
      "standardDescription" : "Specifies how to communicate with Elasticsearch. Supports multiple indices. List of indices is not mandatory. Intended for searching purposes.",
      "customDescription" : null,
      "context" : "CommonContext",
      "parameters" : [ {
        "@class" : "com.findwise.commons.config.blueprint.NestedParameterBlueprint",
        "type" : "com.findwise.commons.config.elastic.authentication.Authentication",
        "name" : "Authentication",
        "description" : "Submits authentication credentials to Elasticsearch with every request, if provided.",
        "required" : true,
        "advanced" : false,
        "value" : {
          "@class" : "com.findwise.commons.config.blueprint.ConfigurableBlueprint",
          "systemId" : "226cede3-4039-49d7-a983-8d217aaf8a98",
          "version" : 1617886057066,
          "active" : true,
          "instanceClass" : "com.findwise.commons.config.elastic.authentication.NoAuthentication",
          "standardName" : "No or anonymous authentication configuration",
          "customName" : null,
          "standardDescription" : "Should be chosen if anonymous authentication or no authentication at all is needed.",
          "customDescription" : null,
          "context" : "CommonContext",
          "parameters" : [ ],
          "hasAdvancedParameters" : false
        }
      }, {
        "@class" : "com.findwise.commons.config.blueprint.NestedParameterBlueprint",
        "type" : "com.findwise.commons.config.elastic.transmission.TransmissionSecurity",
        "name" : "Transmission security",
        "description" : "Transmission security configuration: plain text or HTTPS",
        "required" : true,
        "advanced" : false,
        "value" : {
          "@class" : "com.findwise.commons.config.blueprint.ConfigurableBlueprint",
          "systemId" : "c9415b4d-eb3b-42c4-9453-0f2e096fb363",
          "version" : 1617886057066,
          "active" : true,
          "instanceClass" : "com.findwise.commons.config.elastic.transmission.PlainText",
          "standardName" : "Plain text HTTP",
          "customName" : null,
          "standardDescription" : "Unsecured HTTP transmission",
          "customDescription" : null,
          "context" : "CommonContext",
          "parameters" : [ ],
          "hasAdvancedParameters" : false
        }
      }, {
        "@class" : "com.findwise.commons.config.blueprint.SimpleTypeParameterBlueprint",
        "type" : "java.util.List",
        "name" : "Nodes",
        "description" : "The Elasticsearch nodes to use. Supported formats are: <code>host</code>, <code>host:port</code>, <code>IPv4-address</code>, <code>IPv4-address:port</code>, <code>IPv6-address</code>, <code>[IPv6-address]:port</code>. Entries may be separated by either newline or comma. If port is not set then default one is used <code>9200</code>. Note that protocol which will be used is defined by chosen Transmission security. System properties can be used here with syntax: <code>${system.property.name}</code>.",
        "required" : true,
        "advanced" : false,
        "adapter" : "com.findwise.commons.config.annotation.Parameter$DEFAULT",
        "value" : {
          "java.util.ArrayList" : [ "localhost:9200" ]
        }
      }, {
        "@class" : "com.findwise.commons.config.blueprint.SimpleTypeParameterBlueprint",
        "type" : "int",
        "name" : "Timeout",
        "description" : "The timeout, in milliseconds, to use when communicating with Elasticsearch",
        "required" : true,
        "advanced" : true,
        "adapter" : "com.findwise.commons.config.annotation.Parameter$DEFAULT",
        "value" : 10000
      }, {
        "@class" : "com.findwise.commons.config.blueprint.SimpleTypeParameterBlueprint",
        "type" : "java.util.List",
        "name" : "Indices",
        "description" : "Indices used by client. An empty list will be treated as all indices wherever possible or may yield an error. System properties can be used here with syntax: <code>${system.property.name}</code>.",
        "required" : false,
        "advanced" : false,
        "adapter" : "com.findwise.commons.config.annotation.Parameter$DEFAULT",
        "value" : {
          "java.util.Collections$EmptyList" : [ ]
        }
      } ],
      "hasAdvancedParameters" : true
    }
  } ],
  "hasAdvancedParameters" : false
}