{
    "index_patterns": [
        "aggregated_searchresultfeedback*"
    ],
    "settings": {
        "analysis": {
            "analyzer": {
                "tokens_with_asterisk_analyzer": {
                    "type": "custom",
                    "char_filter": [
                        "storeAsteriskAsString"
                    ],
                    "tokenizer": "standard",
                    "filter": [
                        "getAsteriskFromString",
                        "lowercase"
                    ]
                }
            },
            "filter": {
                "getAsteriskFromString": {
                    "type": "pattern_replace",
                    "pattern": "keepAsteriskToShowInKibanaDashboardCloudVisualization",
                    "replacement": "*"
                }
            },
            "char_filter": {
                "storeAsteriskAsString": {
                    "type": "pattern_replace",
                    "pattern": "\\*",
                    "replacement": "keepAsteriskToShowInKibanaDashboardCloudVisualization"
                }
            }
        }
    },
    "mappings": {
        "properties": {
            "query": {
                "type": "text",
                "fields": {
                    "keyword": {
                        "type": "keyword",
                        "ignore_above": 256
                    },
                    "tokens_with_asterisk": {
                        "type": "text",
                        "fielddata": true,
                        "analyzer": "tokens_with_asterisk_analyzer"
                    }
                }
            },
            "application": {
                "type": "text",
                "norms": false,
                "fields": {
                    "keyword": {
                        "type": "keyword",
                        "ignore_above": 256
                    }
                }
            },
            "searcher": {
                "type": "text",
                "norms": false,
                "fields": {
                    "keyword": {
                        "type": "keyword",
                        "ignore_above": 256
                    }
                }
            },
            "target": {
                "type": "text",
                "norms": false,
                "fields": {
                    "keyword": {
                        "type": "keyword"
                    }
                }
            },
            "timestamp": {
                "type": "date"
            },
            "weight": {
                "type": "float"
            }
        }
    }
}
