{
  "description": "Pipeline for parsing visit signal logs.",
  "processors": [
    {
      "set": {
        "tag": "set_i3_service",
        "field": "i3_service",
        "value": "search"
      }
    },
    {
      "set": {
        "tag": "set_event_type",
        "field": "event_type",
        "value": "visit"
      }
    },
    {
      "date_index_name": {
        "tag": "set_index",
        "index_name_prefix": "visits-",
        "index_name_format": "yyyy.MM",
        "field": "timeOfVisit",
        "date_rounding": "M",
        "on_failure": [
          {
            "append": {
              "field": "error",
              "value": "[{{ _ingest.on_failure_processor_tag }}] Failed to set index: {{ _ingest.on_failure_message }}"
            }
          }
        ]
      }
    }
  ]
}